admin/AdminReply$1.class
admin/AdminClient.class
RPC/CommandRpcServer$ConsumerWorker.class
RPC/loadbalancer/LoadBalancerServer$CommandRpcConsumer.class
admin/AdminGrpc$AdminBaseDescriptorSupplier.class
HTTP/ServiceRpcClient.class
admin/AdminGrpc$AdminStub.class
RPC/Service.class
HTTP/HTTPServerPipelineInitializer.class
admin/AdminServer$1.class
RPC/CommandParser.class
HTTP/Dispatcher.class
RPC/SQLDBConnectionPool.class
admin/AdminRequestOrBuilder.class
RPC/Constants.class
admin/AdminReply$ParamsDefaultEntryHolder.class
RPC/rabbitmq/RabbitMqServer.class
RPC/loadbalancer/LoadBalancerServer$ConsumerWorker.class
admin/AdminProto.class
admin/AdminReplyOrBuilder.class
HTTP/JsonRequestDecoder.class
admin/AdminRequest$ParamsDefaultEntryHolder.class
RPC/rabbitmq/RabbitMqServer$1.class
RPC/CommandRpcServer.class
admin/AdminRequest$1.class
RPC/loadbalancer/LoadBalancerClient.class
admin/AdminGrpc$AdminBlockingStub.class
admin/AdminGrpc$AdminMethodDescriptorSupplier.class
HTTP/HTTPServer.class
HTTP/JsonRequestHandler.class
admin/AdminServer$AdminImpl.class
RPC/Main.class
RPC/CommandRpcServer$CommandRpcConsumer.class
RPC/CommandRpcServer$PublisherWorker.class
admin/AdminRequest$Builder.class
admin/AdminGrpc.class
admin/AdminRequest.class
RPC/rabbitmq/RabbitMqServer$ConsumerWorker.class
admin/AdminProto$1.class
admin/AdminGrpc$AdminFileDescriptorSupplier.class
admin/AdminReply$Builder.class
admin/AdminGrpc$AdminFutureStub.class
HTTP/HttpRequestHandler.class
RPC/rabbitmq/RabbitMqServer$CommandRpcConsumer.class
admin/AdminGrpc$AdminImplBase.class
RPC/rabbitmq/RabbitMqClient.class
admin/AdminGrpc$MethodHandlers.class
admin/AdminGrpc$1.class
RPC/loadbalancer/RoundRobin.class
RPC/CommandRpcServer$1.class
RPC/SignUpCommand.class
admin/AdminReply.class
admin/AdminServer.class
RPC/Command.class
HTTP/JsonResponseEncoder.class
RPC/loadbalancer/LoadBalancerServer.class
HTTP/HttpResponseHandler.class
RPC/loadbalancer/LoadBalancerServer$1.class
